^C:\USERS\ROSS\DOCUMENTS\CGAD\YEAR3\APPLIED_GAMES_TECH\COURSEWORK-WIP\GEF_ABERTAY\GEF_ABERTAY\SAMPLES\SHADOW_MAPPING\DEPTH_SHADER.CPP
/c /I..\.. /I..\..\..\.. /ZI /nologo /W3 /WX- /Od /Oy- /D WIN32 /D _DEBUG /D _CONSOLE /D _UNICODE /D UNICODE /Gm /EHsc /RTC1 /MDd /GS /fp:precise /Zc:wchar_t /Zc:forScope /Zc:inline /Fo"WIN32\DEBUG\\" /Fd"WIN32\DEBUG\VC140.PDB" /Gd /TP /analyze- C:\USERS\ROSS\DOCUMENTS\CGAD\YEAR3\APPLIED_GAMES_TECH\COURSEWORK-WIP\GEF_ABERTAY\GEF_ABERTAY\SAMPLES\SHADOW_MAPPING\DEPTH_SHADER.CPP
^C:\USERS\ROSS\DOCUMENTS\CGAD\YEAR3\APPLIED_GAMES_TECH\COURSEWORK-WIP\GEF_ABERTAY\GEF_ABERTAY\SAMPLES\SHADOW_MAPPING\MAIN_D3D11.CPP
/c /I..\.. /I..\..\..\.. /ZI /nologo /W3 /WX- /Od /Oy- /D WIN32 /D _DEBUG /D _CONSOLE /D _UNICODE /D UNICODE /Gm /EHsc /RTC1 /MDd /GS /fp:precise /Zc:wchar_t /Zc:forScope /Zc:inline /Fo"WIN32\DEBUG\\" /Fd"WIN32\DEBUG\VC140.PDB" /Gd /TP /analyze- C:\USERS\ROSS\DOCUMENTS\CGAD\YEAR3\APPLIED_GAMES_TECH\COURSEWORK-WIP\GEF_ABERTAY\GEF_ABERTAY\SAMPLES\SHADOW_MAPPING\MAIN_D3D11.CPP
^C:\USERS\ROSS\DOCUMENTS\CGAD\YEAR3\APPLIED_GAMES_TECH\COURSEWORK-WIP\GEF_ABERTAY\GEF_ABERTAY\SAMPLES\SHADOW_MAPPING\MESH_APP.CPP
/c /I..\.. /I..\..\..\.. /ZI /nologo /W3 /WX- /Od /Oy- /D WIN32 /D _DEBUG /D _CONSOLE /D _UNICODE /D UNICODE /Gm /EHsc /RTC1 /MDd /GS /fp:precise /Zc:wchar_t /Zc:forScope /Zc:inline /Fo"WIN32\DEBUG\\" /Fd"WIN32\DEBUG\VC140.PDB" /Gd /TP /analyze- C:\USERS\ROSS\DOCUMENTS\CGAD\YEAR3\APPLIED_GAMES_TECH\COURSEWORK-WIP\GEF_ABERTAY\GEF_ABERTAY\SAMPLES\SHADOW_MAPPING\MESH_APP.CPP
^C:\USERS\ROSS\DOCUMENTS\CGAD\YEAR3\APPLIED_GAMES_TECH\COURSEWORK-WIP\GEF_ABERTAY\GEF_ABERTAY\SAMPLES\SHADOW_MAPPING\SHADOW_SHADER.CPP
/c /I..\.. /I..\..\..\.. /ZI /nologo /W3 /WX- /Od /Oy- /D WIN32 /D _DEBUG /D _CONSOLE /D _UNICODE /D UNICODE /Gm /EHsc /RTC1 /MDd /GS /fp:precise /Zc:wchar_t /Zc:forScope /Zc:inline /Fo"WIN32\DEBUG\\" /Fd"WIN32\DEBUG\VC140.PDB" /Gd /TP /analyze- C:\USERS\ROSS\DOCUMENTS\CGAD\YEAR3\APPLIED_GAMES_TECH\COURSEWORK-WIP\GEF_ABERTAY\GEF_ABERTAY\SAMPLES\SHADOW_MAPPING\SHADOW_SHADER.CPP
