^C:\USERS\ROSS\DOCUMENTS\CGAD\YEAR3\APPLIED_GAMES_TECH\COURSEWORK-WIP\GEF_ABERTAY\GEF_ABERTAY\TOOLS\FBX2SCN\FBX_LOADER.CPP
/c /I"C:\PROGRAM FILES\AUTODESK\FBX\FBX SDK\2016.1.1\INCLUDE" /I../../../.. /ZI /nologo /W1 /WX- /Od /Oy- /D _DEBUG /D ABFW_PLATFORM_PC /Gm /EHsc /RTC1 /MTd /GS /fp:precise /Zc:wchar_t /Zc:forScope /Zc:inline /Fo"DEBUG\\" /Fd"DEBUG\VC140.PDB" /Gd /TP /analyze- C:\USERS\ROSS\DOCUMENTS\CGAD\YEAR3\APPLIED_GAMES_TECH\COURSEWORK-WIP\GEF_ABERTAY\GEF_ABERTAY\TOOLS\FBX2SCN\FBX_LOADER.CPP
^C:\USERS\ROSS\DOCUMENTS\CGAD\YEAR3\APPLIED_GAMES_TECH\COURSEWORK-WIP\GEF_ABERTAY\GEF_ABERTAY\TOOLS\FBX2SCN\MAIN.CPP
/c /I"C:\PROGRAM FILES\AUTODESK\FBX\FBX SDK\2016.1.1\INCLUDE" /I../../../.. /ZI /nologo /W1 /WX- /Od /Oy- /D _DEBUG /D ABFW_PLATFORM_PC /Gm /EHsc /RTC1 /MTd /GS /fp:precise /Zc:wchar_t /Zc:forScope /Zc:inline /Fo"DEBUG\\" /Fd"DEBUG\VC140.PDB" /Gd /TP /analyze- C:\USERS\ROSS\DOCUMENTS\CGAD\YEAR3\APPLIED_GAMES_TECH\COURSEWORK-WIP\GEF_ABERTAY\GEF_ABERTAY\TOOLS\FBX2SCN\MAIN.CPP
