^C:\USERS\ROSS\DOCUMENTS\CGAD\YEAR3\APPLIED_GAMES_TECH\COURSEWORK-WIP\GEF_ABERTAY\GEF_ABERTAY\PLATFORM\D3D11\BUILD\VS2015\X64\DEBUG\DEPTH_BUFFER_D3D11.OBJ|C:\USERS\ROSS\DOCUMENTS\CGAD\YEAR3\APPLIED_GAMES_TECH\COURSEWORK-WIP\GEF_ABERTAY\GEF_ABERTAY\PLATFORM\D3D11\BUILD\VS2015\X64\DEBUG\INDEX_BUFFER_D3D11.OBJ|C:\USERS\ROSS\DOCUMENTS\CGAD\YEAR3\APPLIED_GAMES_TECH\COURSEWORK-WIP\GEF_ABERTAY\GEF_ABERTAY\PLATFORM\D3D11\BUILD\VS2015\X64\DEBUG\INPUT_MANAGER_D3D11.OBJ|C:\USERS\ROSS\DOCUMENTS\CGAD\YEAR3\APPLIED_GAMES_TECH\COURSEWORK-WIP\GEF_ABERTAY\GEF_ABERTAY\PLATFORM\D3D11\BUILD\VS2015\X64\DEBUG\KEYBOARD_D3D11.OBJ|C:\USERS\ROSS\DOCUMENTS\CGAD\YEAR3\APPLIED_GAMES_TECH\COURSEWORK-WIP\GEF_ABERTAY\GEF_ABERTAY\PLATFORM\D3D11\BUILD\VS2015\X64\DEBUG\PLATFORM_D3D11.OBJ|C:\USERS\ROSS\DOCUMENTS\CGAD\YEAR3\APPLIED_GAMES_TECH\COURSEWORK-WIP\GEF_ABERTAY\GEF_ABERTAY\PLATFORM\D3D11\BUILD\VS2015\X64\DEBUG\RENDERER_3D_D3D11.OBJ|C:\USERS\ROSS\DOCUMENTS\CGAD\YEAR3\APPLIED_GAMES_TECH\COURSEWORK-WIP\GEF_ABERTAY\GEF_ABERTAY\PLATFORM\D3D11\BUILD\VS2015\X64\DEBUG\RENDER_TARGET_D3D11.OBJ|C:\USERS\ROSS\DOCUMENTS\CGAD\YEAR3\APPLIED_GAMES_TECH\COURSEWORK-WIP\GEF_ABERTAY\GEF_ABERTAY\PLATFORM\D3D11\BUILD\VS2015\X64\DEBUG\SHADER_INTERFACE_D3D11.OBJ|C:\USERS\ROSS\DOCUMENTS\CGAD\YEAR3\APPLIED_GAMES_TECH\COURSEWORK-WIP\GEF_ABERTAY\GEF_ABERTAY\PLATFORM\D3D11\BUILD\VS2015\X64\DEBUG\SONY_CONTROLLER_INPUT_MANAGER_D3D11.OBJ|C:\USERS\ROSS\DOCUMENTS\CGAD\YEAR3\APPLIED_GAMES_TECH\COURSEWORK-WIP\GEF_ABERTAY\GEF_ABERTAY\PLATFORM\D3D11\BUILD\VS2015\X64\DEBUG\SPRITE_RENDERER_D3D11.OBJ|C:\USERS\ROSS\DOCUMENTS\CGAD\YEAR3\APPLIED_GAMES_TECH\COURSEWORK-WIP\GEF_ABERTAY\GEF_ABERTAY\PLATFORM\D3D11\BUILD\VS2015\X64\DEBUG\TEXTURE_D3D11.OBJ|C:\USERS\ROSS\DOCUMENTS\CGAD\YEAR3\APPLIED_GAMES_TECH\COURSEWORK-WIP\GEF_ABERTAY\GEF_ABERTAY\PLATFORM\D3D11\BUILD\VS2015\X64\DEBUG\TOUCH_INPUT_MANAGER_D3D11.OBJ|C:\USERS\ROSS\DOCUMENTS\CGAD\YEAR3\APPLIED_GAMES_TECH\COURSEWORK-WIP\GEF_ABERTAY\GEF_ABERTAY\PLATFORM\D3D11\BUILD\VS2015\X64\DEBUG\VERTEX_BUFFER_D3D11.OBJ
C:\WINDOWS\GLOBALIZATION\SORTING\SORTDEFAULT.NLS
C:\USERS\ROSS\DOCUMENTS\CGAD\YEAR3\APPLIED_GAMES_TECH\COURSEWORK-WIP\GEF_ABERTAY\GEF_ABERTAY\PLATFORM\D3D11\BUILD\VS2015\X64\DEBUG\DEPTH_BUFFER_D3D11.OBJ
C:\WINDOWS\SYSTEM32\TZRES.DLL
C:\USERS\ROSS\DOCUMENTS\CGAD\YEAR3\APPLIED_GAMES_TECH\COURSEWORK-WIP\GEF_ABERTAY\GEF_ABERTAY\PLATFORM\D3D11\BUILD\VS2015\X64\DEBUG\INDEX_BUFFER_D3D11.OBJ
C:\USERS\ROSS\DOCUMENTS\CGAD\YEAR3\APPLIED_GAMES_TECH\COURSEWORK-WIP\GEF_ABERTAY\GEF_ABERTAY\PLATFORM\D3D11\BUILD\VS2015\X64\DEBUG\RENDERER_3D_D3D11.OBJ
C:\USERS\ROSS\DOCUMENTS\CGAD\YEAR3\APPLIED_GAMES_TECH\COURSEWORK-WIP\GEF_ABERTAY\GEF_ABERTAY\PLATFORM\D3D11\BUILD\VS2015\X64\DEBUG\RENDER_TARGET_D3D11.OBJ
C:\USERS\ROSS\DOCUMENTS\CGAD\YEAR3\APPLIED_GAMES_TECH\COURSEWORK-WIP\GEF_ABERTAY\GEF_ABERTAY\PLATFORM\D3D11\BUILD\VS2015\X64\DEBUG\SHADER_INTERFACE_D3D11.OBJ
C:\USERS\ROSS\DOCUMENTS\CGAD\YEAR3\APPLIED_GAMES_TECH\COURSEWORK-WIP\GEF_ABERTAY\GEF_ABERTAY\PLATFORM\D3D11\BUILD\VS2015\X64\DEBUG\SPRITE_RENDERER_D3D11.OBJ
C:\USERS\ROSS\DOCUMENTS\CGAD\YEAR3\APPLIED_GAMES_TECH\COURSEWORK-WIP\GEF_ABERTAY\GEF_ABERTAY\PLATFORM\D3D11\BUILD\VS2015\X64\DEBUG\TEXTURE_D3D11.OBJ
C:\USERS\ROSS\DOCUMENTS\CGAD\YEAR3\APPLIED_GAMES_TECH\COURSEWORK-WIP\GEF_ABERTAY\GEF_ABERTAY\PLATFORM\D3D11\BUILD\VS2015\X64\DEBUG\VERTEX_BUFFER_D3D11.OBJ
C:\USERS\ROSS\DOCUMENTS\CGAD\YEAR3\APPLIED_GAMES_TECH\COURSEWORK-WIP\GEF_ABERTAY\GEF_ABERTAY\PLATFORM\D3D11\BUILD\VS2015\X64\DEBUG\INPUT_MANAGER_D3D11.OBJ
C:\USERS\ROSS\DOCUMENTS\CGAD\YEAR3\APPLIED_GAMES_TECH\COURSEWORK-WIP\GEF_ABERTAY\GEF_ABERTAY\PLATFORM\D3D11\BUILD\VS2015\X64\DEBUG\KEYBOARD_D3D11.OBJ
C:\USERS\ROSS\DOCUMENTS\CGAD\YEAR3\APPLIED_GAMES_TECH\COURSEWORK-WIP\GEF_ABERTAY\GEF_ABERTAY\PLATFORM\D3D11\BUILD\VS2015\X64\DEBUG\SONY_CONTROLLER_INPUT_MANAGER_D3D11.OBJ
C:\USERS\ROSS\DOCUMENTS\CGAD\YEAR3\APPLIED_GAMES_TECH\COURSEWORK-WIP\GEF_ABERTAY\GEF_ABERTAY\PLATFORM\D3D11\BUILD\VS2015\X64\DEBUG\TOUCH_INPUT_MANAGER_D3D11.OBJ
C:\USERS\ROSS\DOCUMENTS\CGAD\YEAR3\APPLIED_GAMES_TECH\COURSEWORK-WIP\GEF_ABERTAY\GEF_ABERTAY\PLATFORM\D3D11\BUILD\VS2015\X64\DEBUG\PLATFORM_D3D11.OBJ
