^C:\USERS\ROSS\DOCUMENTS\CGAD\YEAR3\APPLIED_GAMES_TECH\COURSEWORK-WIP\GEF_ABERTAY\GEF_ABERTAY\PLATFORM\WIN32\BUILD\VS2015\WIN32\DEBUG\DEBUG_LOG_WIN32.OBJ|C:\USERS\ROSS\DOCUMENTS\CGAD\YEAR3\APPLIED_GAMES_TECH\COURSEWORK-WIP\GEF_ABERTAY\GEF_ABERTAY\PLATFORM\WIN32\BUILD\VS2015\WIN32\DEBUG\FILE_WIN32.OBJ|C:\USERS\ROSS\DOCUMENTS\CGAD\YEAR3\APPLIED_GAMES_TECH\COURSEWORK-WIP\GEF_ABERTAY\GEF_ABERTAY\PLATFORM\WIN32\BUILD\VS2015\WIN32\DEBUG\PLATFORM_WIN32_NULL_RENDERER.OBJ|C:\USERS\ROSS\DOCUMENTS\CGAD\YEAR3\APPLIED_GAMES_TECH\COURSEWORK-WIP\GEF_ABERTAY\GEF_ABERTAY\PLATFORM\WIN32\BUILD\VS2015\WIN32\DEBUG\WINDOW_WIN32.OBJ
C:\WINDOWS\GLOBALIZATION\SORTING\SORTDEFAULT.NLS
C:\USERS\ROSS\DOCUMENTS\CGAD\YEAR3\APPLIED_GAMES_TECH\COURSEWORK-WIP\GEF_ABERTAY\GEF_ABERTAY\PLATFORM\WIN32\BUILD\VS2015\WIN32\DEBUG\DEBUG_LOG_WIN32.OBJ
C:\WINDOWS\SYSTEM32\TZRES.DLL
C:\USERS\ROSS\DOCUMENTS\CGAD\YEAR3\APPLIED_GAMES_TECH\COURSEWORK-WIP\GEF_ABERTAY\GEF_ABERTAY\PLATFORM\WIN32\BUILD\VS2015\WIN32\DEBUG\FILE_WIN32.OBJ
C:\USERS\ROSS\DOCUMENTS\CGAD\YEAR3\APPLIED_GAMES_TECH\COURSEWORK-WIP\GEF_ABERTAY\GEF_ABERTAY\PLATFORM\WIN32\BUILD\VS2015\WIN32\DEBUG\PLATFORM_WIN32_NULL_RENDERER.OBJ
C:\USERS\ROSS\DOCUMENTS\CGAD\YEAR3\APPLIED_GAMES_TECH\COURSEWORK-WIP\GEF_ABERTAY\GEF_ABERTAY\PLATFORM\WIN32\BUILD\VS2015\WIN32\DEBUG\WINDOW_WIN32.OBJ
