^C:\USERS\ROSS\DOCUMENTS\CGAD\YEAR3\APPLIED_GAMES_TECH\COURSEWORK-WIP\GEF_ABERTAY\GEF_ABERTAY\ANIMATION\ANIMATION.CPP
/c /I..\.. /I..\..\EXTERNAL\LIBPNG /ZI /nologo /W3 /WX- /Od /Oy- /D WIN32 /D _DEBUG /D _LIB /D _MBCS /Gm /EHsc /RTC1 /MDd /GS /fp:precise /Zc:wchar_t /Zc:forScope /Zc:inline /Fo"WIN32\DEBUG\\" /Fd"WIN32\DEBUG\GEF.PDB" /Gd /TP /analyze- C:\USERS\ROSS\DOCUMENTS\CGAD\YEAR3\APPLIED_GAMES_TECH\COURSEWORK-WIP\GEF_ABERTAY\GEF_ABERTAY\ANIMATION\ANIMATION.CPP
^C:\USERS\ROSS\DOCUMENTS\CGAD\YEAR3\APPLIED_GAMES_TECH\COURSEWORK-WIP\GEF_ABERTAY\GEF_ABERTAY\ANIMATION\JOINT.CPP
/c /I..\.. /I..\..\EXTERNAL\LIBPNG /ZI /nologo /W3 /WX- /Od /Oy- /D WIN32 /D _DEBUG /D _LIB /D _MBCS /Gm /EHsc /RTC1 /MDd /GS /fp:precise /Zc:wchar_t /Zc:forScope /Zc:inline /Fo"WIN32\DEBUG\\" /Fd"WIN32\DEBUG\GEF.PDB" /Gd /TP /analyze- C:\USERS\ROSS\DOCUMENTS\CGAD\YEAR3\APPLIED_GAMES_TECH\COURSEWORK-WIP\GEF_ABERTAY\GEF_ABERTAY\ANIMATION\JOINT.CPP
^C:\USERS\ROSS\DOCUMENTS\CGAD\YEAR3\APPLIED_GAMES_TECH\COURSEWORK-WIP\GEF_ABERTAY\GEF_ABERTAY\ANIMATION\SKELETON.CPP
/c /I..\.. /I..\..\EXTERNAL\LIBPNG /ZI /nologo /W3 /WX- /Od /Oy- /D WIN32 /D _DEBUG /D _LIB /D _MBCS /Gm /EHsc /RTC1 /MDd /GS /fp:precise /Zc:wchar_t /Zc:forScope /Zc:inline /Fo"WIN32\DEBUG\\" /Fd"WIN32\DEBUG\GEF.PDB" /Gd /TP /analyze- C:\USERS\ROSS\DOCUMENTS\CGAD\YEAR3\APPLIED_GAMES_TECH\COURSEWORK-WIP\GEF_ABERTAY\GEF_ABERTAY\ANIMATION\SKELETON.CPP
^C:\USERS\ROSS\DOCUMENTS\CGAD\YEAR3\APPLIED_GAMES_TECH\COURSEWORK-WIP\GEF_ABERTAY\GEF_ABERTAY\ASSETS\OBJ_LOADER.CPP
/c /I..\.. /I..\..\EXTERNAL\LIBPNG /ZI /nologo /W3 /WX- /Od /Oy- /D WIN32 /D _DEBUG /D _LIB /D _MBCS /Gm /EHsc /RTC1 /MDd /GS /fp:precise /Zc:wchar_t /Zc:forScope /Zc:inline /Fo"WIN32\DEBUG\\" /Fd"WIN32\DEBUG\GEF.PDB" /Gd /TP /analyze- C:\USERS\ROSS\DOCUMENTS\CGAD\YEAR3\APPLIED_GAMES_TECH\COURSEWORK-WIP\GEF_ABERTAY\GEF_ABERTAY\ASSETS\OBJ_LOADER.CPP
^C:\USERS\ROSS\DOCUMENTS\CGAD\YEAR3\APPLIED_GAMES_TECH\COURSEWORK-WIP\GEF_ABERTAY\GEF_ABERTAY\ASSETS\PNG_LOADER.CPP
/c /I..\.. /I..\..\EXTERNAL\LIBPNG /ZI /nologo /W3 /WX- /Od /Oy- /D WIN32 /D _DEBUG /D _LIB /D _MBCS /Gm /EHsc /RTC1 /MDd /GS /fp:precise /Zc:wchar_t /Zc:forScope /Zc:inline /Fo"WIN32\DEBUG\\" /Fd"WIN32\DEBUG\GEF.PDB" /Gd /TP /analyze- C:\USERS\ROSS\DOCUMENTS\CGAD\YEAR3\APPLIED_GAMES_TECH\COURSEWORK-WIP\GEF_ABERTAY\GEF_ABERTAY\ASSETS\PNG_LOADER.CPP
^C:\USERS\ROSS\DOCUMENTS\CGAD\YEAR3\APPLIED_GAMES_TECH\COURSEWORK-WIP\GEF_ABERTAY\GEF_ABERTAY\AUDIO\AUDIO_MANAGER.CPP
/c /I..\.. /I..\..\EXTERNAL\LIBPNG /ZI /nologo /W3 /WX- /Od /Oy- /D WIN32 /D _DEBUG /D _LIB /D _MBCS /Gm /EHsc /RTC1 /MDd /GS /fp:precise /Zc:wchar_t /Zc:forScope /Zc:inline /Fo"WIN32\DEBUG\\" /Fd"WIN32\DEBUG\GEF.PDB" /Gd /TP /analyze- C:\USERS\ROSS\DOCUMENTS\CGAD\YEAR3\APPLIED_GAMES_TECH\COURSEWORK-WIP\GEF_ABERTAY\GEF_ABERTAY\AUDIO\AUDIO_MANAGER.CPP
^C:\USERS\ROSS\DOCUMENTS\CGAD\YEAR3\APPLIED_GAMES_TECH\COURSEWORK-WIP\GEF_ABERTAY\GEF_ABERTAY\GRAPHICS\COLOUR.CPP
/c /I..\.. /I..\..\EXTERNAL\LIBPNG /ZI /nologo /W3 /WX- /Od /Oy- /D WIN32 /D _DEBUG /D _LIB /D _MBCS /Gm /EHsc /RTC1 /MDd /GS /fp:precise /Zc:wchar_t /Zc:forScope /Zc:inline /Fo"WIN32\DEBUG\\" /Fd"WIN32\DEBUG\GEF.PDB" /Gd /TP /analyze- C:\USERS\ROSS\DOCUMENTS\CGAD\YEAR3\APPLIED_GAMES_TECH\COURSEWORK-WIP\GEF_ABERTAY\GEF_ABERTAY\GRAPHICS\COLOUR.CPP
^C:\USERS\ROSS\DOCUMENTS\CGAD\YEAR3\APPLIED_GAMES_TECH\COURSEWORK-WIP\GEF_ABERTAY\GEF_ABERTAY\GRAPHICS\DEFAULT_3D_SHADER.CPP
/c /I..\.. /I..\..\EXTERNAL\LIBPNG /ZI /nologo /W3 /WX- /Od /Oy- /D WIN32 /D _DEBUG /D _LIB /D _MBCS /Gm /EHsc /RTC1 /MDd /GS /fp:precise /Zc:wchar_t /Zc:forScope /Zc:inline /Fo"WIN32\DEBUG\\" /Fd"WIN32\DEBUG\GEF.PDB" /Gd /TP /analyze- C:\USERS\ROSS\DOCUMENTS\CGAD\YEAR3\APPLIED_GAMES_TECH\COURSEWORK-WIP\GEF_ABERTAY\GEF_ABERTAY\GRAPHICS\DEFAULT_3D_SHADER.CPP
^C:\USERS\ROSS\DOCUMENTS\CGAD\YEAR3\APPLIED_GAMES_TECH\COURSEWORK-WIP\GEF_ABERTAY\GEF_ABERTAY\GRAPHICS\DEFAULT_3D_SHADER_DATA.CPP
/c /I..\.. /I..\..\EXTERNAL\LIBPNG /ZI /nologo /W3 /WX- /Od /Oy- /D WIN32 /D _DEBUG /D _LIB /D _MBCS /Gm /EHsc /RTC1 /MDd /GS /fp:precise /Zc:wchar_t /Zc:forScope /Zc:inline /Fo"WIN32\DEBUG\\" /Fd"WIN32\DEBUG\GEF.PDB" /Gd /TP /analyze- C:\USERS\ROSS\DOCUMENTS\CGAD\YEAR3\APPLIED_GAMES_TECH\COURSEWORK-WIP\GEF_ABERTAY\GEF_ABERTAY\GRAPHICS\DEFAULT_3D_SHADER_DATA.CPP
^C:\USERS\ROSS\DOCUMENTS\CGAD\YEAR3\APPLIED_GAMES_TECH\COURSEWORK-WIP\GEF_ABERTAY\GEF_ABERTAY\GRAPHICS\DEFAULT_SPRITE_SHADER.CPP
/c /I..\.. /I..\..\EXTERNAL\LIBPNG /ZI /nologo /W3 /WX- /Od /Oy- /D WIN32 /D _DEBUG /D _LIB /D _MBCS /Gm /EHsc /RTC1 /MDd /GS /fp:precise /Zc:wchar_t /Zc:forScope /Zc:inline /Fo"WIN32\DEBUG\\" /Fd"WIN32\DEBUG\GEF.PDB" /Gd /TP /analyze- C:\USERS\ROSS\DOCUMENTS\CGAD\YEAR3\APPLIED_GAMES_TECH\COURSEWORK-WIP\GEF_ABERTAY\GEF_ABERTAY\GRAPHICS\DEFAULT_SPRITE_SHADER.CPP
^C:\USERS\ROSS\DOCUMENTS\CGAD\YEAR3\APPLIED_GAMES_TECH\COURSEWORK-WIP\GEF_ABERTAY\GEF_ABERTAY\GRAPHICS\DEPTH_BUFFER.CPP
/c /I..\.. /I..\..\EXTERNAL\LIBPNG /ZI /nologo /W3 /WX- /Od /Oy- /D WIN32 /D _DEBUG /D _LIB /D _MBCS /Gm /EHsc /RTC1 /MDd /GS /fp:precise /Zc:wchar_t /Zc:forScope /Zc:inline /Fo"WIN32\DEBUG\\" /Fd"WIN32\DEBUG\GEF.PDB" /Gd /TP /analyze- C:\USERS\ROSS\DOCUMENTS\CGAD\YEAR3\APPLIED_GAMES_TECH\COURSEWORK-WIP\GEF_ABERTAY\GEF_ABERTAY\GRAPHICS\DEPTH_BUFFER.CPP
^C:\USERS\ROSS\DOCUMENTS\CGAD\YEAR3\APPLIED_GAMES_TECH\COURSEWORK-WIP\GEF_ABERTAY\GEF_ABERTAY\GRAPHICS\FONT.CPP
/c /I..\.. /I..\..\EXTERNAL\LIBPNG /ZI /nologo /W3 /WX- /Od /Oy- /D WIN32 /D _DEBUG /D _LIB /D _MBCS /Gm /EHsc /RTC1 /MDd /GS /fp:precise /Zc:wchar_t /Zc:forScope /Zc:inline /Fo"WIN32\DEBUG\\" /Fd"WIN32\DEBUG\GEF.PDB" /Gd /TP /analyze- C:\USERS\ROSS\DOCUMENTS\CGAD\YEAR3\APPLIED_GAMES_TECH\COURSEWORK-WIP\GEF_ABERTAY\GEF_ABERTAY\GRAPHICS\FONT.CPP
^C:\USERS\ROSS\DOCUMENTS\CGAD\YEAR3\APPLIED_GAMES_TECH\COURSEWORK-WIP\GEF_ABERTAY\GEF_ABERTAY\GRAPHICS\IMAGE_DATA.CPP
/c /I..\.. /I..\..\EXTERNAL\LIBPNG /ZI /nologo /W3 /WX- /Od /Oy- /D WIN32 /D _DEBUG /D _LIB /D _MBCS /Gm /EHsc /RTC1 /MDd /GS /fp:precise /Zc:wchar_t /Zc:forScope /Zc:inline /Fo"WIN32\DEBUG\\" /Fd"WIN32\DEBUG\GEF.PDB" /Gd /TP /analyze- C:\USERS\ROSS\DOCUMENTS\CGAD\YEAR3\APPLIED_GAMES_TECH\COURSEWORK-WIP\GEF_ABERTAY\GEF_ABERTAY\GRAPHICS\IMAGE_DATA.CPP
^C:\USERS\ROSS\DOCUMENTS\CGAD\YEAR3\APPLIED_GAMES_TECH\COURSEWORK-WIP\GEF_ABERTAY\GEF_ABERTAY\GRAPHICS\INDEX_BUFFER.CPP
/c /I..\.. /I..\..\EXTERNAL\LIBPNG /ZI /nologo /W3 /WX- /Od /Oy- /D WIN32 /D _DEBUG /D _LIB /D _MBCS /Gm /EHsc /RTC1 /MDd /GS /fp:precise /Zc:wchar_t /Zc:forScope /Zc:inline /Fo"WIN32\DEBUG\\" /Fd"WIN32\DEBUG\GEF.PDB" /Gd /TP /analyze- C:\USERS\ROSS\DOCUMENTS\CGAD\YEAR3\APPLIED_GAMES_TECH\COURSEWORK-WIP\GEF_ABERTAY\GEF_ABERTAY\GRAPHICS\INDEX_BUFFER.CPP
^C:\USERS\ROSS\DOCUMENTS\CGAD\YEAR3\APPLIED_GAMES_TECH\COURSEWORK-WIP\GEF_ABERTAY\GEF_ABERTAY\GRAPHICS\MATERIAL.CPP
/c /I..\.. /I..\..\EXTERNAL\LIBPNG /ZI /nologo /W3 /WX- /Od /Oy- /D WIN32 /D _DEBUG /D _LIB /D _MBCS /Gm /EHsc /RTC1 /MDd /GS /fp:precise /Zc:wchar_t /Zc:forScope /Zc:inline /Fo"WIN32\DEBUG\\" /Fd"WIN32\DEBUG\GEF.PDB" /Gd /TP /analyze- C:\USERS\ROSS\DOCUMENTS\CGAD\YEAR3\APPLIED_GAMES_TECH\COURSEWORK-WIP\GEF_ABERTAY\GEF_ABERTAY\GRAPHICS\MATERIAL.CPP
^C:\USERS\ROSS\DOCUMENTS\CGAD\YEAR3\APPLIED_GAMES_TECH\COURSEWORK-WIP\GEF_ABERTAY\GEF_ABERTAY\GRAPHICS\MESH.CPP
/c /I..\.. /I..\..\EXTERNAL\LIBPNG /ZI /nologo /W3 /WX- /Od /Oy- /D WIN32 /D _DEBUG /D _LIB /D _MBCS /Gm /EHsc /RTC1 /MDd /GS /fp:precise /Zc:wchar_t /Zc:forScope /Zc:inline /Fo"WIN32\DEBUG\\" /Fd"WIN32\DEBUG\GEF.PDB" /Gd /TP /analyze- C:\USERS\ROSS\DOCUMENTS\CGAD\YEAR3\APPLIED_GAMES_TECH\COURSEWORK-WIP\GEF_ABERTAY\GEF_ABERTAY\GRAPHICS\MESH.CPP
^C:\USERS\ROSS\DOCUMENTS\CGAD\YEAR3\APPLIED_GAMES_TECH\COURSEWORK-WIP\GEF_ABERTAY\GEF_ABERTAY\GRAPHICS\MESH_DATA.CPP
/c /I..\.. /I..\..\EXTERNAL\LIBPNG /ZI /nologo /W3 /WX- /Od /Oy- /D WIN32 /D _DEBUG /D _LIB /D _MBCS /Gm /EHsc /RTC1 /MDd /GS /fp:precise /Zc:wchar_t /Zc:forScope /Zc:inline /Fo"WIN32\DEBUG\\" /Fd"WIN32\DEBUG\GEF.PDB" /Gd /TP /analyze- C:\USERS\ROSS\DOCUMENTS\CGAD\YEAR3\APPLIED_GAMES_TECH\COURSEWORK-WIP\GEF_ABERTAY\GEF_ABERTAY\GRAPHICS\MESH_DATA.CPP
^C:\USERS\ROSS\DOCUMENTS\CGAD\YEAR3\APPLIED_GAMES_TECH\COURSEWORK-WIP\GEF_ABERTAY\GEF_ABERTAY\GRAPHICS\MESH_INSTANCE.CPP
/c /I..\.. /I..\..\EXTERNAL\LIBPNG /ZI /nologo /W3 /WX- /Od /Oy- /D WIN32 /D _DEBUG /D _LIB /D _MBCS /Gm /EHsc /RTC1 /MDd /GS /fp:precise /Zc:wchar_t /Zc:forScope /Zc:inline /Fo"WIN32\DEBUG\\" /Fd"WIN32\DEBUG\GEF.PDB" /Gd /TP /analyze- C:\USERS\ROSS\DOCUMENTS\CGAD\YEAR3\APPLIED_GAMES_TECH\COURSEWORK-WIP\GEF_ABERTAY\GEF_ABERTAY\GRAPHICS\MESH_INSTANCE.CPP
^C:\USERS\ROSS\DOCUMENTS\CGAD\YEAR3\APPLIED_GAMES_TECH\COURSEWORK-WIP\GEF_ABERTAY\GEF_ABERTAY\GRAPHICS\MODEL.CPP
/c /I..\.. /I..\..\EXTERNAL\LIBPNG /ZI /nologo /W3 /WX- /Od /Oy- /D WIN32 /D _DEBUG /D _LIB /D _MBCS /Gm /EHsc /RTC1 /MDd /GS /fp:precise /Zc:wchar_t /Zc:forScope /Zc:inline /Fo"WIN32\DEBUG\\" /Fd"WIN32\DEBUG\GEF.PDB" /Gd /TP /analyze- C:\USERS\ROSS\DOCUMENTS\CGAD\YEAR3\APPLIED_GAMES_TECH\COURSEWORK-WIP\GEF_ABERTAY\GEF_ABERTAY\GRAPHICS\MODEL.CPP
^C:\USERS\ROSS\DOCUMENTS\CGAD\YEAR3\APPLIED_GAMES_TECH\COURSEWORK-WIP\GEF_ABERTAY\GEF_ABERTAY\GRAPHICS\PRIMITIVE.CPP
/c /I..\.. /I..\..\EXTERNAL\LIBPNG /ZI /nologo /W3 /WX- /Od /Oy- /D WIN32 /D _DEBUG /D _LIB /D _MBCS /Gm /EHsc /RTC1 /MDd /GS /fp:precise /Zc:wchar_t /Zc:forScope /Zc:inline /Fo"WIN32\DEBUG\\" /Fd"WIN32\DEBUG\GEF.PDB" /Gd /TP /analyze- C:\USERS\ROSS\DOCUMENTS\CGAD\YEAR3\APPLIED_GAMES_TECH\COURSEWORK-WIP\GEF_ABERTAY\GEF_ABERTAY\GRAPHICS\PRIMITIVE.CPP
^C:\USERS\ROSS\DOCUMENTS\CGAD\YEAR3\APPLIED_GAMES_TECH\COURSEWORK-WIP\GEF_ABERTAY\GEF_ABERTAY\GRAPHICS\RENDERER_3D.CPP
/c /I..\.. /I..\..\EXTERNAL\LIBPNG /ZI /nologo /W3 /WX- /Od /Oy- /D WIN32 /D _DEBUG /D _LIB /D _MBCS /Gm /EHsc /RTC1 /MDd /GS /fp:precise /Zc:wchar_t /Zc:forScope /Zc:inline /Fo"WIN32\DEBUG\\" /Fd"WIN32\DEBUG\GEF.PDB" /Gd /TP /analyze- C:\USERS\ROSS\DOCUMENTS\CGAD\YEAR3\APPLIED_GAMES_TECH\COURSEWORK-WIP\GEF_ABERTAY\GEF_ABERTAY\GRAPHICS\RENDERER_3D.CPP
^C:\USERS\ROSS\DOCUMENTS\CGAD\YEAR3\APPLIED_GAMES_TECH\COURSEWORK-WIP\GEF_ABERTAY\GEF_ABERTAY\GRAPHICS\RENDER_TARGET.CPP
/c /I..\.. /I..\..\EXTERNAL\LIBPNG /ZI /nologo /W3 /WX- /Od /Oy- /D WIN32 /D _DEBUG /D _LIB /D _MBCS /Gm /EHsc /RTC1 /MDd /GS /fp:precise /Zc:wchar_t /Zc:forScope /Zc:inline /Fo"WIN32\DEBUG\\" /Fd"WIN32\DEBUG\GEF.PDB" /Gd /TP /analyze- C:\USERS\ROSS\DOCUMENTS\CGAD\YEAR3\APPLIED_GAMES_TECH\COURSEWORK-WIP\GEF_ABERTAY\GEF_ABERTAY\GRAPHICS\RENDER_TARGET.CPP
^C:\USERS\ROSS\DOCUMENTS\CGAD\YEAR3\APPLIED_GAMES_TECH\COURSEWORK-WIP\GEF_ABERTAY\GEF_ABERTAY\GRAPHICS\SCENE.CPP
/c /I..\.. /I..\..\EXTERNAL\LIBPNG /ZI /nologo /W3 /WX- /Od /Oy- /D WIN32 /D _DEBUG /D _LIB /D _MBCS /Gm /EHsc /RTC1 /MDd /GS /fp:precise /Zc:wchar_t /Zc:forScope /Zc:inline /Fo"WIN32\DEBUG\\" /Fd"WIN32\DEBUG\GEF.PDB" /Gd /TP /analyze- C:\USERS\ROSS\DOCUMENTS\CGAD\YEAR3\APPLIED_GAMES_TECH\COURSEWORK-WIP\GEF_ABERTAY\GEF_ABERTAY\GRAPHICS\SCENE.CPP
^C:\USERS\ROSS\DOCUMENTS\CGAD\YEAR3\APPLIED_GAMES_TECH\COURSEWORK-WIP\GEF_ABERTAY\GEF_ABERTAY\GRAPHICS\SHADER.CPP
/c /I..\.. /I..\..\EXTERNAL\LIBPNG /ZI /nologo /W3 /WX- /Od /Oy- /D WIN32 /D _DEBUG /D _LIB /D _MBCS /Gm /EHsc /RTC1 /MDd /GS /fp:precise /Zc:wchar_t /Zc:forScope /Zc:inline /Fo"WIN32\DEBUG\\" /Fd"WIN32\DEBUG\GEF.PDB" /Gd /TP /analyze- C:\USERS\ROSS\DOCUMENTS\CGAD\YEAR3\APPLIED_GAMES_TECH\COURSEWORK-WIP\GEF_ABERTAY\GEF_ABERTAY\GRAPHICS\SHADER.CPP
^C:\USERS\ROSS\DOCUMENTS\CGAD\YEAR3\APPLIED_GAMES_TECH\COURSEWORK-WIP\GEF_ABERTAY\GEF_ABERTAY\GRAPHICS\SHADER_INTERFACE.CPP
/c /I..\.. /I..\..\EXTERNAL\LIBPNG /ZI /nologo /W3 /WX- /Od /Oy- /D WIN32 /D _DEBUG /D _LIB /D _MBCS /Gm /EHsc /RTC1 /MDd /GS /fp:precise /Zc:wchar_t /Zc:forScope /Zc:inline /Fo"WIN32\DEBUG\\" /Fd"WIN32\DEBUG\GEF.PDB" /Gd /TP /analyze- C:\USERS\ROSS\DOCUMENTS\CGAD\YEAR3\APPLIED_GAMES_TECH\COURSEWORK-WIP\GEF_ABERTAY\GEF_ABERTAY\GRAPHICS\SHADER_INTERFACE.CPP
^C:\USERS\ROSS\DOCUMENTS\CGAD\YEAR3\APPLIED_GAMES_TECH\COURSEWORK-WIP\GEF_ABERTAY\GEF_ABERTAY\GRAPHICS\SKINNED_MESH_SHADER_DATA.CPP
/c /I..\.. /I..\..\EXTERNAL\LIBPNG /ZI /nologo /W3 /WX- /Od /Oy- /D WIN32 /D _DEBUG /D _LIB /D _MBCS /Gm /EHsc /RTC1 /MDd /GS /fp:precise /Zc:wchar_t /Zc:forScope /Zc:inline /Fo"WIN32\DEBUG\\" /Fd"WIN32\DEBUG\GEF.PDB" /Gd /TP /analyze- C:\USERS\ROSS\DOCUMENTS\CGAD\YEAR3\APPLIED_GAMES_TECH\COURSEWORK-WIP\GEF_ABERTAY\GEF_ABERTAY\GRAPHICS\SKINNED_MESH_SHADER_DATA.CPP
^C:\USERS\ROSS\DOCUMENTS\CGAD\YEAR3\APPLIED_GAMES_TECH\COURSEWORK-WIP\GEF_ABERTAY\GEF_ABERTAY\GRAPHICS\SPRITE.CPP
/c /I..\.. /I..\..\EXTERNAL\LIBPNG /ZI /nologo /W3 /WX- /Od /Oy- /D WIN32 /D _DEBUG /D _LIB /D _MBCS /Gm /EHsc /RTC1 /MDd /GS /fp:precise /Zc:wchar_t /Zc:forScope /Zc:inline /Fo"WIN32\DEBUG\\" /Fd"WIN32\DEBUG\GEF.PDB" /Gd /TP /analyze- C:\USERS\ROSS\DOCUMENTS\CGAD\YEAR3\APPLIED_GAMES_TECH\COURSEWORK-WIP\GEF_ABERTAY\GEF_ABERTAY\GRAPHICS\SPRITE.CPP
^C:\USERS\ROSS\DOCUMENTS\CGAD\YEAR3\APPLIED_GAMES_TECH\COURSEWORK-WIP\GEF_ABERTAY\GEF_ABERTAY\GRAPHICS\SPRITE_RENDERER.CPP
/c /I..\.. /I..\..\EXTERNAL\LIBPNG /ZI /nologo /W3 /WX- /Od /Oy- /D WIN32 /D _DEBUG /D _LIB /D _MBCS /Gm /EHsc /RTC1 /MDd /GS /fp:precise /Zc:wchar_t /Zc:forScope /Zc:inline /Fo"WIN32\DEBUG\\" /Fd"WIN32\DEBUG\GEF.PDB" /Gd /TP /analyze- C:\USERS\ROSS\DOCUMENTS\CGAD\YEAR3\APPLIED_GAMES_TECH\COURSEWORK-WIP\GEF_ABERTAY\GEF_ABERTAY\GRAPHICS\SPRITE_RENDERER.CPP
^C:\USERS\ROSS\DOCUMENTS\CGAD\YEAR3\APPLIED_GAMES_TECH\COURSEWORK-WIP\GEF_ABERTAY\GEF_ABERTAY\GRAPHICS\TEXTURE.CPP
/c /I..\.. /I..\..\EXTERNAL\LIBPNG /ZI /nologo /W3 /WX- /Od /Oy- /D WIN32 /D _DEBUG /D _LIB /D _MBCS /Gm /EHsc /RTC1 /MDd /GS /fp:precise /Zc:wchar_t /Zc:forScope /Zc:inline /Fo"WIN32\DEBUG\\" /Fd"WIN32\DEBUG\GEF.PDB" /Gd /TP /analyze- C:\USERS\ROSS\DOCUMENTS\CGAD\YEAR3\APPLIED_GAMES_TECH\COURSEWORK-WIP\GEF_ABERTAY\GEF_ABERTAY\GRAPHICS\TEXTURE.CPP
^C:\USERS\ROSS\DOCUMENTS\CGAD\YEAR3\APPLIED_GAMES_TECH\COURSEWORK-WIP\GEF_ABERTAY\GEF_ABERTAY\GRAPHICS\VERTEX_BUFFER.CPP
/c /I..\.. /I..\..\EXTERNAL\LIBPNG /ZI /nologo /W3 /WX- /Od /Oy- /D WIN32 /D _DEBUG /D _LIB /D _MBCS /Gm /EHsc /RTC1 /MDd /GS /fp:precise /Zc:wchar_t /Zc:forScope /Zc:inline /Fo"WIN32\DEBUG\\" /Fd"WIN32\DEBUG\GEF.PDB" /Gd /TP /analyze- C:\USERS\ROSS\DOCUMENTS\CGAD\YEAR3\APPLIED_GAMES_TECH\COURSEWORK-WIP\GEF_ABERTAY\GEF_ABERTAY\GRAPHICS\VERTEX_BUFFER.CPP
^C:\USERS\ROSS\DOCUMENTS\CGAD\YEAR3\APPLIED_GAMES_TECH\COURSEWORK-WIP\GEF_ABERTAY\GEF_ABERTAY\INPUT\INPUT_MANAGER.CPP
/c /I..\.. /I..\..\EXTERNAL\LIBPNG /ZI /nologo /W3 /WX- /Od /Oy- /D WIN32 /D _DEBUG /D _LIB /D _MBCS /Gm /EHsc /RTC1 /MDd /GS /fp:precise /Zc:wchar_t /Zc:forScope /Zc:inline /Fo"WIN32\DEBUG\\" /Fd"WIN32\DEBUG\GEF.PDB" /Gd /TP /analyze- C:\USERS\ROSS\DOCUMENTS\CGAD\YEAR3\APPLIED_GAMES_TECH\COURSEWORK-WIP\GEF_ABERTAY\GEF_ABERTAY\INPUT\INPUT_MANAGER.CPP
^C:\USERS\ROSS\DOCUMENTS\CGAD\YEAR3\APPLIED_GAMES_TECH\COURSEWORK-WIP\GEF_ABERTAY\GEF_ABERTAY\INPUT\KEYBOARD.CPP
/c /I..\.. /I..\..\EXTERNAL\LIBPNG /ZI /nologo /W3 /WX- /Od /Oy- /D WIN32 /D _DEBUG /D _LIB /D _MBCS /Gm /EHsc /RTC1 /MDd /GS /fp:precise /Zc:wchar_t /Zc:forScope /Zc:inline /Fo"WIN32\DEBUG\\" /Fd"WIN32\DEBUG\GEF.PDB" /Gd /TP /analyze- C:\USERS\ROSS\DOCUMENTS\CGAD\YEAR3\APPLIED_GAMES_TECH\COURSEWORK-WIP\GEF_ABERTAY\GEF_ABERTAY\INPUT\KEYBOARD.CPP
^C:\USERS\ROSS\DOCUMENTS\CGAD\YEAR3\APPLIED_GAMES_TECH\COURSEWORK-WIP\GEF_ABERTAY\GEF_ABERTAY\INPUT\SONY_CONTROLLER_INPUT_MANAGER.CPP
/c /I..\.. /I..\..\EXTERNAL\LIBPNG /ZI /nologo /W3 /WX- /Od /Oy- /D WIN32 /D _DEBUG /D _LIB /D _MBCS /Gm /EHsc /RTC1 /MDd /GS /fp:precise /Zc:wchar_t /Zc:forScope /Zc:inline /Fo"WIN32\DEBUG\\" /Fd"WIN32\DEBUG\GEF.PDB" /Gd /TP /analyze- C:\USERS\ROSS\DOCUMENTS\CGAD\YEAR3\APPLIED_GAMES_TECH\COURSEWORK-WIP\GEF_ABERTAY\GEF_ABERTAY\INPUT\SONY_CONTROLLER_INPUT_MANAGER.CPP
^C:\USERS\ROSS\DOCUMENTS\CGAD\YEAR3\APPLIED_GAMES_TECH\COURSEWORK-WIP\GEF_ABERTAY\GEF_ABERTAY\INPUT\TOUCH_INPUT_MANAGER.CPP
/c /I..\.. /I..\..\EXTERNAL\LIBPNG /ZI /nologo /W3 /WX- /Od /Oy- /D WIN32 /D _DEBUG /D _LIB /D _MBCS /Gm /EHsc /RTC1 /MDd /GS /fp:precise /Zc:wchar_t /Zc:forScope /Zc:inline /Fo"WIN32\DEBUG\\" /Fd"WIN32\DEBUG\GEF.PDB" /Gd /TP /analyze- C:\USERS\ROSS\DOCUMENTS\CGAD\YEAR3\APPLIED_GAMES_TECH\COURSEWORK-WIP\GEF_ABERTAY\GEF_ABERTAY\INPUT\TOUCH_INPUT_MANAGER.CPP
^C:\USERS\ROSS\DOCUMENTS\CGAD\YEAR3\APPLIED_GAMES_TECH\COURSEWORK-WIP\GEF_ABERTAY\GEF_ABERTAY\MATHS\AABB.CPP
/c /I..\.. /I..\..\EXTERNAL\LIBPNG /ZI /nologo /W3 /WX- /Od /Oy- /D WIN32 /D _DEBUG /D _LIB /D _MBCS /Gm /EHsc /RTC1 /MDd /GS /fp:precise /Zc:wchar_t /Zc:forScope /Zc:inline /Fo"WIN32\DEBUG\\" /Fd"WIN32\DEBUG\GEF.PDB" /Gd /TP /analyze- C:\USERS\ROSS\DOCUMENTS\CGAD\YEAR3\APPLIED_GAMES_TECH\COURSEWORK-WIP\GEF_ABERTAY\GEF_ABERTAY\MATHS\AABB.CPP
^C:\USERS\ROSS\DOCUMENTS\CGAD\YEAR3\APPLIED_GAMES_TECH\COURSEWORK-WIP\GEF_ABERTAY\GEF_ABERTAY\MATHS\FRUSTUM.CPP
/c /I..\.. /I..\..\EXTERNAL\LIBPNG /ZI /nologo /W3 /WX- /Od /Oy- /D WIN32 /D _DEBUG /D _LIB /D _MBCS /Gm /EHsc /RTC1 /MDd /GS /fp:precise /Zc:wchar_t /Zc:forScope /Zc:inline /Fo"WIN32\DEBUG\\" /Fd"WIN32\DEBUG\GEF.PDB" /Gd /TP /analyze- C:\USERS\ROSS\DOCUMENTS\CGAD\YEAR3\APPLIED_GAMES_TECH\COURSEWORK-WIP\GEF_ABERTAY\GEF_ABERTAY\MATHS\FRUSTUM.CPP
^C:\USERS\ROSS\DOCUMENTS\CGAD\YEAR3\APPLIED_GAMES_TECH\COURSEWORK-WIP\GEF_ABERTAY\GEF_ABERTAY\MATHS\MATRIX33.CPP
/c /I..\.. /I..\..\EXTERNAL\LIBPNG /ZI /nologo /W3 /WX- /Od /Oy- /D WIN32 /D _DEBUG /D _LIB /D _MBCS /Gm /EHsc /RTC1 /MDd /GS /fp:precise /Zc:wchar_t /Zc:forScope /Zc:inline /Fo"WIN32\DEBUG\\" /Fd"WIN32\DEBUG\GEF.PDB" /Gd /TP /analyze- C:\USERS\ROSS\DOCUMENTS\CGAD\YEAR3\APPLIED_GAMES_TECH\COURSEWORK-WIP\GEF_ABERTAY\GEF_ABERTAY\MATHS\MATRIX33.CPP
^C:\USERS\ROSS\DOCUMENTS\CGAD\YEAR3\APPLIED_GAMES_TECH\COURSEWORK-WIP\GEF_ABERTAY\GEF_ABERTAY\MATHS\MATRIX44.CPP
/c /I..\.. /I..\..\EXTERNAL\LIBPNG /ZI /nologo /W3 /WX- /Od /Oy- /D WIN32 /D _DEBUG /D _LIB /D _MBCS /Gm /EHsc /RTC1 /MDd /GS /fp:precise /Zc:wchar_t /Zc:forScope /Zc:inline /Fo"WIN32\DEBUG\\" /Fd"WIN32\DEBUG\GEF.PDB" /Gd /TP /analyze- C:\USERS\ROSS\DOCUMENTS\CGAD\YEAR3\APPLIED_GAMES_TECH\COURSEWORK-WIP\GEF_ABERTAY\GEF_ABERTAY\MATHS\MATRIX44.CPP
^C:\USERS\ROSS\DOCUMENTS\CGAD\YEAR3\APPLIED_GAMES_TECH\COURSEWORK-WIP\GEF_ABERTAY\GEF_ABERTAY\MATHS\PLANE.CPP
/c /I..\.. /I..\..\EXTERNAL\LIBPNG /ZI /nologo /W3 /WX- /Od /Oy- /D WIN32 /D _DEBUG /D _LIB /D _MBCS /Gm /EHsc /RTC1 /MDd /GS /fp:precise /Zc:wchar_t /Zc:forScope /Zc:inline /Fo"WIN32\DEBUG\\" /Fd"WIN32\DEBUG\GEF.PDB" /Gd /TP /analyze- C:\USERS\ROSS\DOCUMENTS\CGAD\YEAR3\APPLIED_GAMES_TECH\COURSEWORK-WIP\GEF_ABERTAY\GEF_ABERTAY\MATHS\PLANE.CPP
^C:\USERS\ROSS\DOCUMENTS\CGAD\YEAR3\APPLIED_GAMES_TECH\COURSEWORK-WIP\GEF_ABERTAY\GEF_ABERTAY\MATHS\QUATERNION.CPP
/c /I..\.. /I..\..\EXTERNAL\LIBPNG /ZI /nologo /W3 /WX- /Od /Oy- /D WIN32 /D _DEBUG /D _LIB /D _MBCS /Gm /EHsc /RTC1 /MDd /GS /fp:precise /Zc:wchar_t /Zc:forScope /Zc:inline /Fo"WIN32\DEBUG\\" /Fd"WIN32\DEBUG\GEF.PDB" /Gd /TP /analyze- C:\USERS\ROSS\DOCUMENTS\CGAD\YEAR3\APPLIED_GAMES_TECH\COURSEWORK-WIP\GEF_ABERTAY\GEF_ABERTAY\MATHS\QUATERNION.CPP
^C:\USERS\ROSS\DOCUMENTS\CGAD\YEAR3\APPLIED_GAMES_TECH\COURSEWORK-WIP\GEF_ABERTAY\GEF_ABERTAY\MATHS\SPHERE.CPP
/c /I..\.. /I..\..\EXTERNAL\LIBPNG /ZI /nologo /W3 /WX- /Od /Oy- /D WIN32 /D _DEBUG /D _LIB /D _MBCS /Gm /EHsc /RTC1 /MDd /GS /fp:precise /Zc:wchar_t /Zc:forScope /Zc:inline /Fo"WIN32\DEBUG\\" /Fd"WIN32\DEBUG\GEF.PDB" /Gd /TP /analyze- C:\USERS\ROSS\DOCUMENTS\CGAD\YEAR3\APPLIED_GAMES_TECH\COURSEWORK-WIP\GEF_ABERTAY\GEF_ABERTAY\MATHS\SPHERE.CPP
^C:\USERS\ROSS\DOCUMENTS\CGAD\YEAR3\APPLIED_GAMES_TECH\COURSEWORK-WIP\GEF_ABERTAY\GEF_ABERTAY\MATHS\TRANSFORM.CPP
/c /I..\.. /I..\..\EXTERNAL\LIBPNG /ZI /nologo /W3 /WX- /Od /Oy- /D WIN32 /D _DEBUG /D _LIB /D _MBCS /Gm /EHsc /RTC1 /MDd /GS /fp:precise /Zc:wchar_t /Zc:forScope /Zc:inline /Fo"WIN32\DEBUG\\" /Fd"WIN32\DEBUG\GEF.PDB" /Gd /TP /analyze- C:\USERS\ROSS\DOCUMENTS\CGAD\YEAR3\APPLIED_GAMES_TECH\COURSEWORK-WIP\GEF_ABERTAY\GEF_ABERTAY\MATHS\TRANSFORM.CPP
^C:\USERS\ROSS\DOCUMENTS\CGAD\YEAR3\APPLIED_GAMES_TECH\COURSEWORK-WIP\GEF_ABERTAY\GEF_ABERTAY\MATHS\VECTOR2.CPP
/c /I..\.. /I..\..\EXTERNAL\LIBPNG /ZI /nologo /W3 /WX- /Od /Oy- /D WIN32 /D _DEBUG /D _LIB /D _MBCS /Gm /EHsc /RTC1 /MDd /GS /fp:precise /Zc:wchar_t /Zc:forScope /Zc:inline /Fo"WIN32\DEBUG\\" /Fd"WIN32\DEBUG\GEF.PDB" /Gd /TP /analyze- C:\USERS\ROSS\DOCUMENTS\CGAD\YEAR3\APPLIED_GAMES_TECH\COURSEWORK-WIP\GEF_ABERTAY\GEF_ABERTAY\MATHS\VECTOR2.CPP
^C:\USERS\ROSS\DOCUMENTS\CGAD\YEAR3\APPLIED_GAMES_TECH\COURSEWORK-WIP\GEF_ABERTAY\GEF_ABERTAY\MATHS\VECTOR4.CPP
/c /I..\.. /I..\..\EXTERNAL\LIBPNG /ZI /nologo /W3 /WX- /Od /Oy- /D WIN32 /D _DEBUG /D _LIB /D _MBCS /Gm /EHsc /RTC1 /MDd /GS /fp:precise /Zc:wchar_t /Zc:forScope /Zc:inline /Fo"WIN32\DEBUG\\" /Fd"WIN32\DEBUG\GEF.PDB" /Gd /TP /analyze- C:\USERS\ROSS\DOCUMENTS\CGAD\YEAR3\APPLIED_GAMES_TECH\COURSEWORK-WIP\GEF_ABERTAY\GEF_ABERTAY\MATHS\VECTOR4.CPP
^C:\USERS\ROSS\DOCUMENTS\CGAD\YEAR3\APPLIED_GAMES_TECH\COURSEWORK-WIP\GEF_ABERTAY\GEF_ABERTAY\SYSTEM\APPLICATION.CPP
/c /I..\.. /I..\..\EXTERNAL\LIBPNG /ZI /nologo /W3 /WX- /Od /Oy- /D WIN32 /D _DEBUG /D _LIB /D _MBCS /Gm /EHsc /RTC1 /MDd /GS /fp:precise /Zc:wchar_t /Zc:forScope /Zc:inline /Fo"WIN32\DEBUG\\" /Fd"WIN32\DEBUG\GEF.PDB" /Gd /TP /analyze- C:\USERS\ROSS\DOCUMENTS\CGAD\YEAR3\APPLIED_GAMES_TECH\COURSEWORK-WIP\GEF_ABERTAY\GEF_ABERTAY\SYSTEM\APPLICATION.CPP
^C:\USERS\ROSS\DOCUMENTS\CGAD\YEAR3\APPLIED_GAMES_TECH\COURSEWORK-WIP\GEF_ABERTAY\GEF_ABERTAY\SYSTEM\CRC.CPP
/c /I..\.. /I..\..\EXTERNAL\LIBPNG /ZI /nologo /W3 /WX- /Od /Oy- /D WIN32 /D _DEBUG /D _LIB /D _MBCS /Gm /EHsc /RTC1 /MDd /GS /fp:precise /Zc:wchar_t /Zc:forScope /Zc:inline /Fo"WIN32\DEBUG\\" /Fd"WIN32\DEBUG\GEF.PDB" /Gd /TP /analyze- C:\USERS\ROSS\DOCUMENTS\CGAD\YEAR3\APPLIED_GAMES_TECH\COURSEWORK-WIP\GEF_ABERTAY\GEF_ABERTAY\SYSTEM\CRC.CPP
^C:\USERS\ROSS\DOCUMENTS\CGAD\YEAR3\APPLIED_GAMES_TECH\COURSEWORK-WIP\GEF_ABERTAY\GEF_ABERTAY\SYSTEM\FILE.CPP
/c /I..\.. /I..\..\EXTERNAL\LIBPNG /ZI /nologo /W3 /WX- /Od /Oy- /D WIN32 /D _DEBUG /D _LIB /D _MBCS /Gm /EHsc /RTC1 /MDd /GS /fp:precise /Zc:wchar_t /Zc:forScope /Zc:inline /Fo"WIN32\DEBUG\\" /Fd"WIN32\DEBUG\GEF.PDB" /Gd /TP /analyze- C:\USERS\ROSS\DOCUMENTS\CGAD\YEAR3\APPLIED_GAMES_TECH\COURSEWORK-WIP\GEF_ABERTAY\GEF_ABERTAY\SYSTEM\FILE.CPP
^C:\USERS\ROSS\DOCUMENTS\CGAD\YEAR3\APPLIED_GAMES_TECH\COURSEWORK-WIP\GEF_ABERTAY\GEF_ABERTAY\SYSTEM\MEMORY_STREAM_BUFFER.CPP
/c /I..\.. /I..\..\EXTERNAL\LIBPNG /ZI /nologo /W3 /WX- /Od /Oy- /D WIN32 /D _DEBUG /D _LIB /D _MBCS /Gm /EHsc /RTC1 /MDd /GS /fp:precise /Zc:wchar_t /Zc:forScope /Zc:inline /Fo"WIN32\DEBUG\\" /Fd"WIN32\DEBUG\GEF.PDB" /Gd /TP /analyze- C:\USERS\ROSS\DOCUMENTS\CGAD\YEAR3\APPLIED_GAMES_TECH\COURSEWORK-WIP\GEF_ABERTAY\GEF_ABERTAY\SYSTEM\MEMORY_STREAM_BUFFER.CPP
^C:\USERS\ROSS\DOCUMENTS\CGAD\YEAR3\APPLIED_GAMES_TECH\COURSEWORK-WIP\GEF_ABERTAY\GEF_ABERTAY\SYSTEM\PLATFORM.CPP
/c /I..\.. /I..\..\EXTERNAL\LIBPNG /ZI /nologo /W3 /WX- /Od /Oy- /D WIN32 /D _DEBUG /D _LIB /D _MBCS /Gm /EHsc /RTC1 /MDd /GS /fp:precise /Zc:wchar_t /Zc:forScope /Zc:inline /Fo"WIN32\DEBUG\\" /Fd"WIN32\DEBUG\GEF.PDB" /Gd /TP /analyze- C:\USERS\ROSS\DOCUMENTS\CGAD\YEAR3\APPLIED_GAMES_TECH\COURSEWORK-WIP\GEF_ABERTAY\GEF_ABERTAY\SYSTEM\PLATFORM.CPP
^C:\USERS\ROSS\DOCUMENTS\CGAD\YEAR3\APPLIED_GAMES_TECH\COURSEWORK-WIP\GEF_ABERTAY\GEF_ABERTAY\SYSTEM\STRING_ID.CPP
/c /I..\.. /I..\..\EXTERNAL\LIBPNG /ZI /nologo /W3 /WX- /Od /Oy- /D WIN32 /D _DEBUG /D _LIB /D _MBCS /Gm /EHsc /RTC1 /MDd /GS /fp:precise /Zc:wchar_t /Zc:forScope /Zc:inline /Fo"WIN32\DEBUG\\" /Fd"WIN32\DEBUG\GEF.PDB" /Gd /TP /analyze- C:\USERS\ROSS\DOCUMENTS\CGAD\YEAR3\APPLIED_GAMES_TECH\COURSEWORK-WIP\GEF_ABERTAY\GEF_ABERTAY\SYSTEM\STRING_ID.CPP
